{
  "expenses": [
    {
      "id": "4d2d77d9-4c56-4ce7-9ff1-67877a028447",
      "title": "Bag",
      "amount": 12,
      "createdAt": "2024-01-03T00:00:00.000Z"
    }
  ],
  "courses": [
    {
      "id": "c3",
      "title": "Node",
      "duration": 80,
      "author": "Mary Public"
    },
    {
      "id": "c4",
      "title": "JavaScript",
      "duration": "50",
      "author": "Monica"
    },
    {
      "title": "Python",
      "duration": "75",
      "author": "Jill",
      "id": "RKydX0m"
    },
    {
      "title": "Java",
      "duration": "120",
      "author": "SK",
      "id": "lUQ2U3M"
    },
    {
      "title": "Python",
      "duration": "70",
      "author": "Mary",
      "id": "zjMrjC5"
    },
    {
      "title": "C++",
      "duration": "130",
      "author": "Mary Public",
      "id": "HlJgnCK"
    }
  ],
  "users": [
    {
      "email": "test@test.com",
      "password": "test123",
      "id": 1
    },
    {
      "email": "john@test",
      "password": "john123",
      "id": 2
    },
    {
      "email": "jenny@test",
      "password": "john123",
      "id": 3
    }
  ]
}